The hypoimg package
…
Besides the hamlet illustrations, the hypoimg also provides labels for all countries of the Caribbean and the Golf of Mexico:

hypo_flag
#> # A tibble: 41 x 2
#>    geo                    flag       
#>    <chr>                  <list>     
#>  1 anguilla               <S3: gTree>
#>  2 antigua_barbuda        <S3: gTree>
#>  3 aruba                  <S3: gTree>
#>  4 bahamas                <S3: gTree>
#>  5 barbados               <S3: gTree>
#>  6 belize                 <S3: gTree>
#>  7 bermuda                <S3: gTree>
#>  8 british_virgin_islands <S3: gTree>
#>  9 caribbean              <S3: gTree>
#> 10 cayman_islands         <S3: gTree>
#> # ... with 31 more rows
…
