The hypoimg package • hypoimg
…
The package contains one left and one right facing illustration for 19 different hamlet species and morphotypes. They are made available as grid objects (grob) in the tibble hypo_img:

hypo_img
#> # A tibble: 22 x 4
#>    spec           geno  l       r      
#>    <chr>          <chr> <list>  <list> 
#>  1 aberrans       H     <gTree> <gTree>
#>  2 atlahua        H     <gTree> <gTree>
#>  3 castroaguirrei H     <gTree> <gTree>
#>  4 chlorurus      H     <gTree> <gTree>
#>  5 ecosur         H     <gTree> <gTree>
#>  6 floridae       H     <gTree> <gTree>
#>  7 gemma          H     <gTree> <gTree>
#>  8 gummigutta     H     <gTree> <gTree>
#>  9 guttavarius    H     <gTree> <gTree>
#> 10 indigo         H     <gTree> <gTree>
#> # … with 12 more rows
…
Besides the hamlet illustrations, the hypoimg also provides labels for all countries of the Caribbean and the Golf of Mexico:

hypo_flag
#> # A tibble: 41 x 2
#>    geo                    flag   
#>    <chr>                  <list> 
#>  1 anguilla               <gTree>
#>  2 antigua_barbuda        <gTree>
#>  3 aruba                  <gTree>
#>  4 bahamas                <gTree>
#>  5 barbados               <gTree>
#>  6 belize                 <gTree>
#>  7 bermuda                <gTree>
#>  8 british_virgin_islands <gTree>
#>  9 caribbean              <gTree>
#> 10 cayman_islands         <gTree>
#> # … with 31 more rows
…
